[gd_scene load_steps=4 format=2]

[ext_resource path="res://blokoj/kosmo/resursoj/violet_frame.png" type="Texture" id=1]
[ext_resource path="res://blokoj/kosmo/skriptoj/way_point.gd" type="Script" id=2]

[sub_resource type="SphereShape" id=1]

[node name="way_point" type="Spatial"]
script = ExtResource( 2 )

[node name="VisibilityNotifier" type="VisibilityNotifier" parent="."]

[node name="TextureRect" type="TextureRect" parent="."]
visible = false
margin_left = -25.0
margin_top = -25.0
margin_right = 25.0
margin_bottom = 25.0
texture = ExtResource( 1 )
expand = true
__meta__ = {
"_edit_use_anchors_": false
}

[node name="Area" type="Area" parent="."]

[node name="CollisionShape" type="CollisionShape" parent="Area"]
shape = SubResource( 1 )
[connection signal="camera_entered" from="VisibilityNotifier" to="." method="_on_VisibilityNotifier_camera_entered"]
[connection signal="camera_exited" from="VisibilityNotifier" to="." method="_on_VisibilityNotifier_camera_exited"]
[connection signal="body_entered" from="Area" to="." method="_on_Area_body_entered"]
